\BOOKMARK [0][-]{chapter.1}{\376\377\000E\000l\001\121\000a\000d\000\341\000s\000o\000k}{}% 1
\BOOKMARK [1][-]{section.1.2}{\376\377\000M\000\341\000s\000o\000d\000i\000k\000\040\000e\000l\001\121\000a\000d\000\341\000s}{chapter.1}% 2
\BOOKMARK [2][-]{subsection.1.2.1}{\376\377\000S\000z\000\351\000n}{section.1.2}% 3
\BOOKMARK [2][-]{subsection.1.2.2}{\376\377\000K\000\351\000m\000i\000a\000i\000\040\000k\000\366\000t\000\351\000s\000e\000k}{section.1.2}% 4
\BOOKMARK [2][-]{subsection.1.2.3}{\376\377\000M\000\341\000s\000o\000d\000r\000e\000n\000d\001\161\000\040\000k\000\366\000t\000\351\000s\000e\000k}{section.1.2}% 5
\BOOKMARK [1][-]{section.1.3}{\376\377\000H\000a\000r\000m\000a\000d\000i\000k\000\040\000e\000l\001\121\000a\000d\000\341\000s}{chapter.1}% 6
\BOOKMARK [2][-]{subsection.1.3.1}{\376\377\000P\000o\000l\000i\000m\000e\000r\000e\000k\000\040\000e\000l\001\121\000\341\000l\000l\000\355\000t\000\341\000s\000a}{section.1.3}% 7
\BOOKMARK [2][-]{subsection.1.3.2}{\376\377\000P\000o\000l\000i\000m\000e\000r\000i\000z\000\341\000c\000i\000\363\000s\000\040\000r\000e\000a\000k\000t\000o\000r\000t\000\355\000p\000u\000s\000o\000k}{section.1.3}% 8
\BOOKMARK [2][-]{subsection.1.3.3}{\376\377\000P\000o\000l\000i\000m\000e\000r\000e\000k\000\040\000f\001\121\000b\000b\000\040\000j\000e\000l\000l\000e\000m\000z\001\121\000i}{section.1.3}% 9
\BOOKMARK [1][-]{section.1.4}{\376\377\000N\000e\000g\000y\000e\000d\000i\000k\000\040\000e\000l\001\121\000a\000d\000\341\000s}{chapter.1}% 10
\BOOKMARK [2][-]{subsection.1.4.1}{\376\377\000M\000o\000l\000e\000k\000u\000l\000\341\000k\000\040\000a\000l\000a\000k\000j\000a\000i}{section.1.4}% 11
\BOOKMARK [2][-]{subsection.1.4.2}{\376\377\000F\000\341\000z\000i\000s\000o\000k}{section.1.4}% 12
\BOOKMARK [1][-]{section.1.5}{\376\377\000\326\000t\000\366\000d\000i\000k\000\040\000e\000l\001\121\000a\000d\000\341\000s}{chapter.1}% 13
\BOOKMARK [2][-]{subsection.1.5.1}{\376\377\000P\000o\000l\000i\000m\000e\000r\000e\000k\000\040\000f\000i\000z\000i\000k\000a\000i\000\040\000\341\000l\000l\000a\000p\000o\000t\000a\000i}{section.1.5}% 14
\BOOKMARK [1][-]{section.1.6}{\376\377\000H\000a\000t\000o\000d\000i\000k\000\040\000e\000l\001\121\000a\000d\000\341\000s}{chapter.1}% 15
\BOOKMARK [2][-]{subsection.1.6.1}{\376\377\000P\000o\000l\000i\000m\000e\000r\000e\000k\000\040\000t\000e\000r\000m\000o\000d\000i\000n\000a\000m\000i\000k\000a\000i\000\040\000v\000i\000z\000s\000g\000\341\000l\000a\000t\000a\000\040\000\050\0002\000.\0001\000.\0002\000.\000\040\000f\000e\000j\000e\000z\000e\000t\000\051}{section.1.6}% 16
\BOOKMARK [2][-]{subsection.1.6.2}{\376\377\000T\000e\000r\000h\000e\000l\000\351\000s\000e\000k\000,\000\040\000v\000i\000z\000s\000g\000\341\000l\000a\000t\000o\000k}{section.1.6}% 17
\BOOKMARK [1][-]{section.1.7}{\376\377\000H\000e\000t\000e\000d\000i\000k\000\040\000e\000l\001\121\000a\000d\000\341\000s}{chapter.1}% 18
\BOOKMARK [2][-]{subsection.1.7.1}{\376\377\000K\000\372\000s\000z\000\341\000s}{section.1.7}% 19
\BOOKMARK [2][-]{subsection.1.7.2}{\376\377\000M\000\351\000r\000e\000t\000e\000z\000\351\000s}{section.1.7}% 20
\BOOKMARK [2][-]{subsection.1.7.3}{\376\377\000F\000e\000s\000z\000\374\000l\000t\000s\000\351\000g\000\040\000r\000e\000l\000a\000x\000\341\000c\000i\000\363}{section.1.7}% 21
\BOOKMARK [2][-]{subsection.1.7.4}{\376\377\000\334\000t\001\121\000v\000i\000z\000s\000g\000\341\000l\000a\000t\000o\000k}{section.1.7}% 22
\BOOKMARK [1][-]{section.1.8}{\376\377\000N\000y\000o\000l\000c\000a\000d\000i\000k\000\040\000e\000l\001\121\000a\000d\000\341\000s}{chapter.1}% 23
\BOOKMARK [2][-]{subsection.1.8.1}{\376\377\000N\000e\000w\000t\000o\000n\000i\000\040\000f\000o\000l\000y\000a\000d\000\351\000k\000o\000k}{section.1.8}% 24
\BOOKMARK [2][-]{subsection.1.8.2}{\376\377\000H\000a\000t\000v\000\341\000n\000y\000t\000\366\000r\000v\000\351\000n\000y\000\040\000\050\000O\000s\000w\000a\000l\000t\000\040\000-\000\040\000d\000e\000\040\000W\000a\000e\000l\000e\000\051}{section.1.8}% 25
\BOOKMARK [2][-]{subsection.1.8.3}{\376\377\000B\000i\000n\000g\000h\000a\000m}{section.1.8}% 26
\BOOKMARK [2][-]{subsection.1.8.4}{\376\377\000F\000l\000u\000k\000t\000u\000\341\000c\000i\000\363\000s\000\040\000h\000\341\000l\000\363\000\040\000m\000o\000d\000e\000l\000l}{section.1.8}% 27
\BOOKMARK [2][-]{subsection.1.8.5}{\376\377\000V\000a\000l\000\363\000s\000\040\000p\000o\000l\000i\000m\000e\000r\000\040\000\366\000m\000l\000e\000d\000\351\000k}{section.1.8}% 28
\BOOKMARK [2][-]{subsection.1.8.6}{\376\377\000K\000i\000l\000\351\000p\000\351\000s\000i\000\040\000d\000u\000z\000z\000a\000d\000\341\000s}{section.1.8}% 29
\BOOKMARK [2][-]{subsection.1.8.7}{\376\377\000F\000o\000l\000y\000a\000d\000\351\000k\000\040\000l\000a\000m\000i\000n\000\341\000r\000i\000s\000\040\000\341\000r\000a\000m\000l\000\341\000s\000a\000\040\000k\000a\000p\000i\000l\000l\000\341\000r\000i\000s\000b\000a\000n}{section.1.8}% 30
\BOOKMARK [1][-]{section.1.9}{\376\377\000K\000i\000l\000e\000n\000c\000e\000d\000i\000k\000\040\000e\000l\001\121\000a\000d\000\341\000s}{chapter.1}% 31
\BOOKMARK [2][-]{subsection.1.9.1}{\376\377\000E\000l\001\121\000k\000\351\000s\000z\000\355\000t\000\351\000s}{section.1.9}% 32
\BOOKMARK [1][-]{section.1.10}{\376\377\000T\000i\000z\000e\000d\000i\000k\000\040\000e\000l\001\121\000a\000d\000\341\000s}{chapter.1}% 33
\BOOKMARK [2][-]{subsection.1.10.1}{\376\377\000S\000z\000a\000k\000a\000s\000z\000o\000s\000\040\000e\000l\000j\000\341\000r\000\341\000s\000o\000k}{section.1.10}% 34
\BOOKMARK [2][-]{subsection.1.10.2}{\376\377\000F\000o\000l\000y\000t\000o\000n\000o\000s\000\040\000e\000l\000j\000\341\000r\000\341\000s\000o\000k}{section.1.10}% 35
\BOOKMARK [1][-]{section.1.11}{\376\377\000T\000i\000z\000e\000n\000e\000g\000y\000e\000d\000i\000k\000\040\000e\000l\001\121\000a\000d\000\341\000s}{chapter.1}% 36
\BOOKMARK [2][-]{subsection.1.11.1}{\376\377\000K\000a\000l\000a\000n\000d\000e\000r\000e\000z\000\351\000s}{section.1.11}% 37
\BOOKMARK [2][-]{subsection.1.11.2}{\376\377\000M\000e\000l\000e\000g\000a\000l\000a\000k\000\355\000t\000\341\000s}{section.1.11}% 38
\BOOKMARK [2][-]{subsection.1.11.3}{\376\377\000\334\000r\000e\000g\000e\000s\000\040\000t\000e\000s\000t\000e\000k\000\040\000g\000y\000\341\000r\000t\000\341\000s\000a}{section.1.11}% 39
\BOOKMARK [1][-]{section.1.12}{\376\377\000T\000i\000z\000e\000n\000k\000e\000t\000t\000e\000d\000i\000k\000\040\000e\000l\001\121\000a\000d\000\341\000s}{chapter.1}% 40
\BOOKMARK [2][-]{subsection.1.12.1}{\376\377\000F\000r\000\366\000c\000c\000s\000f\000\372\000v\000\341\000s}{section.1.12}% 41
\BOOKMARK [2][-]{subsection.1.12.2}{\376\377\000R\000o\000t\000\341\000c\000i\000\363\000s\000\040\000\366\000n\000t\000\351\000s}{section.1.12}% 42
\BOOKMARK [2][-]{subsection.1.12.3}{\376\377\000D\000e\000k\000o\000r\000\341\000c\000i\000\363\000s\000\040\000t\000e\000c\000h\000n\000o\000l\000\363\000g\000i\000\341\000k}{section.1.12}% 43
\BOOKMARK [0][-]{chapter.2}{\376\377\000S\000z\000i\000l\000l\000a\000b\000u\000s\000z\000o\000k}{}% 44
\BOOKMARK [1][-]{section.2.0}{\376\377\000A\000n\000y\000a\000g\000i\000s\000m\000e\000r\000e\000t\000i\000\040\000a\000l\000a\000p\000o\000k}{chapter.2}% 45
\BOOKMARK [2][-]{subsection.2.0.1}{\376\377\000A\000l\000a\000p\000f\000o\000g\000a\000l\000m\000a\000k}{section.2.0}% 46
\BOOKMARK [2][-]{subsection.2.0.2}{\376\377\000C\000s\000o\000p\000o\000r\000t\000o\000s\000\355\000t\000\341\000s}{section.2.0}% 47
\BOOKMARK [2][-]{subsection.2.0.3}{\376\377\000A\000n\000y\000a\000g\000s\000z\000e\000r\000k\000e\000z\000e\000t}{section.2.0}% 48
\BOOKMARK [2][-]{subsection.2.0.4}{\376\377\000T\000\366\000m\000e\000g\000m\001\161\000a\000n\000y\000a\000g\000o\000k}{section.2.0}% 49
\BOOKMARK [2][-]{subsection.2.0.5}{\376\377\000M\001\161\000s\000z\000a\000k\000i\000\040\000m\001\161\000a\000n\000y\000a\000g\000o\000k}{section.2.0}% 50
\BOOKMARK [1][-]{section.2.1}{\376\377\000S\000z\000a\000k\000\355\000t\000\341\000s\000-\000k\000\372\000s\000z\000\341\000s\000\040\000\050\000M\0001\000\051}{chapter.2}% 51
\BOOKMARK [2][-]{subsection.2.1.1}{\376\377\000S\000z\000a\000k\000\355\000t\000\363\000d\000i\000a\000g\000r\000a\000m\000\040\000-\000\040\000m\000e\000c\000h\000a\000n\000i\000k\000a\000i\000\040\000j\000e\000l\000l\000e\000m\000z\001\121\000k}{section.2.1}% 52
\BOOKMARK [2][-]{subsection.2.1.2}{\376\377\000V\000i\000s\000z\000k\000o\000e\000l\000a\000s\000z\000t\000i\000c\000i\000t\000\341\000s}{section.2.1}% 53
\BOOKMARK [1][-]{section.2.2}{\376\377\000A\000z\000\040\000e\000x\000t\000r\000\372\000z\000i\000\363\000\040\000a\000l\000a\000p\000j\000a\000i\000\040\000\050\000M\0002\000\051}{chapter.2}% 54
\BOOKMARK [2][-]{subsection.2.2.1}{\376\377\000E\000x\000t\000r\000u\000d\000s\000z\000e\000r\000s\000z\000\341\000m\000o\000k}{section.2.2}% 55
\BOOKMARK [1][-]{section.2.3}{\376\377\000F\000r\000\366\000c\000c\000s\000\366\000n\000t\000\351\000s\000\040\000\050\000M\0003\000\051}{chapter.2}% 56
\BOOKMARK [2][-]{subsection.2.3.1}{\376\377\000A\000\040\000f\000r\000\366\000c\000c\000s\000\366\000n\000t\001\121\000g\000\351\000p}{section.2.3}% 57
\BOOKMARK [2][-]{subsection.2.3.2}{\376\377\000F\000r\000\366\000c\000c\000s\000\366\000n\000t\000\351\000s\000i\000\040\000c\000i\000k\000l\000u\000s}{section.2.3}% 58
\BOOKMARK [2][-]{subsection.2.3.3}{\376\377\000\326\000m\000l\000e\000d\000\351\000k\000\040\000\341\000l\000l\000a\000p\000o\000t\000h\000a\000t\000\341\000r\000o\000z\000\363\000i}{section.2.3}% 59
\BOOKMARK [1][-]{section.2.4}{\376\377\0003\000D\000\040\000n\000y\000o\000m\000t\000a\000t\000\341\000s\000\040\000\050\000M\0004\000\051}{chapter.2}% 60
\BOOKMARK [2][-]{subsection.2.4.1}{\376\377\000S\000T\000L\000\040\000f\000o\000r\000m\000\341\000t\000u\000m}{section.2.4}% 61
\BOOKMARK [2][-]{subsection.2.4.2}{\376\377\000A\000d\000d\000i\000t\000\355\000v\000\040\000g\000y\000\341\000r\000t\000\341\000s\000t\000e\000c\000h\000n\000o\000l\000\363\000g\000i\000\341\000k\000\040\000\050\000A\000M\000\051}{section.2.4}% 62
\BOOKMARK [1][-]{section.2.5}{\376\377\000K\000o\000m\000p\000o\000z\000i\000t\000o\000k\000\040\000\050\000M\0005\000\051}{chapter.2}% 63
\BOOKMARK [2][-]{subsection.2.5.1}{\376\377\000E\000r\001\121\000s\000\355\000t\001\121\000k}{section.2.5}% 64
\BOOKMARK [2][-]{subsection.2.5.2}{\376\377\000M\000\341\000t\000r\000i\000x\000o\000k}{section.2.5}% 65
\BOOKMARK [2][-]{subsection.2.5.3}{\376\377\000G\000y\000\341\000r\000t\000\341\000s}{section.2.5}% 66
\BOOKMARK [2][-]{subsection.2.5.4}{\376\377\000S\000z\000e\000n\000d\000v\000i\000c\000s\000s\000z\000e\000r\000k\000e\000z\000e\000t}{section.2.5}% 67
